…
``` r
library(arulesViz)
```

    ## Loading required package: grid

## Looking at data and picking what I want to minimize computing needed

``` r
Wendys.df = Wendys[,c(1,3,4,5,7,13,14,78,79,82)]
Wendys.df
```

    ## # A tibble: 3,199 x 10
    ##    user_id created_at          screen_name text  display_text_wi~ favorite_count
    ##    <chr>   <dttm>              <chr>       <chr>            <dbl>          <int>
    ##  1 595535~ 2019-11-19 19:25:47 Wendys      "@th~              112              2
    ##  2 595535~ 2019-11-19 18:54:57 Wendys      "@ja~               87              1
    ##  3 595535~ 2019-11-19 18:47:07 Wendys      "@Cy~              110              0
    ##  4 595535~ 2019-11-19 18:39:35 Wendys      "@No~              211              0
    ##  5 595535~ 2019-11-19 18:32:33 Wendys      "@Lb~               53             12
    ##  6 595535~ 2019-11-19 18:28:53 Wendys      "@km~              157              0
    ##  7 595535~ 2019-11-19 17:52:26 Wendys      "@mo~              104              0
    ##  8 595535~ 2019-11-19 17:12:54 Wendys      "@_b~              109              0
    ##  9 595535~ 2019-11-19 16:45:11 Wendys      "@le~               95              0
    ## 10 595535~ 2019-11-19 16:40:36 Wendys      "@sh~              119              0
    ## # ... with 3,189 more rows, and 4 more variables: retweet_count <int>,
    ## #   followers_count <int>, friends_count <int>, favourites_count <int>
…
## Using Functions to clean the tweets text

``` r
clean1 <- textScrubber(Wendys.df)
clean1[1:10]
```

    ## # A tibble: 3,199 x 10
    ##    user_id created_at          screen_name text  display_text_wi~ favorite_count
    ##    <chr>   <dttm>              <chr>       <chr>            <dbl>          <int>
    ##  1 595535~ 2019-11-19 19:25:47 Wendys      "the~              112              2
    ##  2 595535~ 2019-11-19 18:54:57 Wendys      "jay~               87              1
    ##  3 595535~ 2019-11-19 18:47:07 Wendys      "cyr~              110              0
    ##  4 595535~ 2019-11-19 18:39:35 Wendys      "noc~              211              0
    ##  5 595535~ 2019-11-19 18:32:33 Wendys      "lbb~               53             12
    ##  6 595535~ 2019-11-19 18:28:53 Wendys      "kmi~              157              0
    ##  7 595535~ 2019-11-19 17:52:26 Wendys      "mom~              104              0
    ##  8 595535~ 2019-11-19 17:12:54 Wendys      "bre~              109              0
    ##  9 595535~ 2019-11-19 16:45:11 Wendys      "lea~               95              0
    ## 10 595535~ 2019-11-19 16:40:36 Wendys      "sha~              119              0
    ## # ... with 3,189 more rows, and 4 more variables: retweet_count <int>,
    ## #   followers_count <int>, friends_count <int>, favourites_count <int>
…
